{
  "subreddit": [
    "NSFW411",
    "nsfw",
    "suicidegirls",
    "nsfw2",
    "TipOfMyPenis",
    "bonermaterial",
    "porn",
    "nsfw411",
    "iWantToFuckHer",
    "exxxtras",
    "distension",
    "bimbofetish",
    "christiangirls",
    "cuckold",
    "dirtygaming",
    "sexybutnotporn",
    "femalepov",
    "omgbeckylookathiscock",
    "sexygirls",
    "breedingmaterial",
    "canthold",
    "toocuteforporn",
    "justhotwomen",
    "realsexyselfies",
    "stripgirls",
    "hotstuffnsfw",
    "uncommonposes",
    "gifsofremoval",
    "nostalgiafapping",
    "milf",
    "gonewild30plus",
    "preggoporn",
    "realmoms",
    "legalteens",
    "collegesluts",
    "adorableporn",
    "legalteensXXX",
    "gonewild18",
    "18_19",
    "just18",
    "PornStarletHQ",
    "fauxbait",
    "realgirls",
    "amateur",
    "homemadexxx",
    "dirtypenpals",
    "FestivalSluts",
    "CollegeAmateurs",
    "amateurcumsluts",
    "nsfw_amateurs",
    "funwithfriends",
    "randomsexiness",
    "amateurporn",
    "normalnudes",
    "Camwhores",
    "camsluts",
    "streamersgonewild",
    "GoneWild",
    "PetiteGoneWild",
    "gonewildstories",
    "GoneWildTube",
    "treesgonewild",
    "gonewildaudio",
    "GWNerdy",
    "gonemild",
    "altgonewild",
    "gifsgonewild",
    "analgw",
    "gonewildsmiles",
    "onstageGW",
    "RepressedGoneWild",
    "bdsmgw",
    "UnderwearGW",
    "LabiaGW",
    "TributeMe",
    "WeddingsGoneWild",
    "gwpublic",
    "assholegonewild",
    "leggingsgonewild",
    "dykesgonewild",
    "goneerotic",
    "snapchatgw",
    "gonewildhairy",
    "gonewildtrans",
    "gonwild",
    "ratemynudebody",
    "gonewild30plus",
    "gonewild18",
    "onmww",
    "ohnomomwentwild",
    "GWCouples",
    "gonewildcouples",
    "gwcumsluts",
    "WouldYouFuckMyWife",
    "gonewildcurvy",
    "GoneWildplus",
    "BigBoobsGW",
    "bigboobsgonewild",
    "mycleavage",
    "AsiansGoneWild",
    "gonewildcolor",
    "indiansgonewild",
    "latinasgw",
    "pawgtastic",
    "workgonewild",
    "GoneWildScrubs",
    "swingersgw",
    "militarygonewild",
    "NSFW_Snapchat",
    "snapchat_sluts",
    "snapleaks",
    "wifesharing",
    "hotwife",
    "wouldyoufuckmywife",
    "slutwife",
    "rule34",
    "ecchi",
    "futanari",
    "doujinshi",
    "yiff",
    "furry",
    "monstergirl",
    "rule34_comics",
    "sex_comics",
    "hentai",
    "hentai_gif",
    "WesternHentai",
    "hentai_irl",
    "overwatch_porn",
    "pokeporn",
    "bowsette",
    "rule34lol",
    "rule34overwatch",
    "BDSM",
    "Bondage",
    "BDSMcommunity",
    "bdsmgw",
    "blowjobs",
    "lipsthatgrip",
    "deepthroat",
    "onherknees",
    "blowjobsandwich",
    "ass",
    "asstastic",
    "facedownassup",
    "assinthong",
    "bigasses",
    "buttplug",
    "TheUnderbun",
    "booty",
    "pawg",
    "paag",
    "cutelittlebutts",
    "hipcleavage",
    "frogbutt",
    "HungryButts",
    "cottontails",
    "lovetowatchyouleave",
    "celebritybutts",
    "cosplaybutts",
    "anal",
    "analgw",
    "painal",
    "masterofanal",
    "buttsharpies",
    "asshole",
    "AssholeBehindThong",
    "assholegonewild",
    "spreadem",
    "girlsinyogapants",
    "yogapants",
    "boobies",
    "TittyDrop",
    "boltedontits",
    "boobbounce",
    "boobs",
    "downblouse",
    "homegrowntits",
    "cleavage",
    "breastenvy",
    "youtubetitties",
    "torpedotits",
    "thehangingboobs",
    "page3glamour",
    "BustyPetite",
    "hugeboobs",
    "stacked",
    "burstingout",
    "BigBoobsGW",
    "bigboobsgonewild",
    "2busty2hide",
    "bigtiddygothgf",
    "engorgedveinybreasts",
    "pokies",
    "ghostnipples",
    "nipples",
    "puffies",
    "lactation",
    "tinytits",
    "aa_cups",
    "braceface",
    "GirlswithNeonHair",
    "shorthairchicks",
    "blonde",
    "girlsinyogapants",
    "stockings",
    "legs",
    "tightshorts",
    "buttsandbarefeet",
    "feet",
    "datgap",
    "thighhighs",
    "thickthighs",
    "thighdeology",
    "pussy",
    "rearpussy",
    "innie",
    "simps",
    "pelfie",
    "LabiaGW",
    "godpussy",
    "presenting",
    "cameltoe",
    "hairypussy",
    "moundofvenus",
    "pussymound",
    "Hotchickswithtattoos",
    "sexyfrex",
    "tanlines",
    "oilporn",
    "ComplexionExcellence",
    "SexyTummies",
    "theratio",
    "fitgirls",
    "bodyperfection",
    "samespecies",
    "athleticgirls",
    "gonewildcurvy",
    "curvy",
    "gonewildplus",
    "thick",
    "juicyasians",
    "voluptuous",
    "biggerthanyouthought",
    "jigglefuck",
    "chubby",
    "SlimThick",
    "massivetitsnass",
    "thicker",
    "thickthighs",
    "tightsqueeze",
    "casualjiggles",
    "bbw",
    "BustyPetite",
    "dirtysmall",
    "petitegonewild",
    "xsmallgirls",
    "funsized",
    "hugedicktinychick",
    "volleyballgirls",
    "Ohlympics",
    "celebnsfw",
    "WatchItForThePlot",
    "nsfwcelebarchive",
    "celebritypussy",
    "oldschoolcoolNSFW",
    "extramile",
    "jerkofftocelebs",
    "celebritybutts",
    "onoffcelebs",
    "cumsluts",
    "GirlsFinishingTheJob",
    "cumfetish",
    "amateurcumsluts",
    "cumcoveredfucking",
    "cumhaters",
    "thickloads",
    "before_after_cumsluts",
    "pulsatingcumshots",
    "impressedbycum",
    "creampies",
    "throatpies",
    "FacialFun",
    "cumonclothes",
    "oralcreampie",
    "HappyEmbarrassedGirls",
    "unashamed",
    "borednignored",
    "annoyedtobenude",
    "damngoodinterracial",
    "AsianHotties",
    "AsiansGoneWild",
    "realasians",
    "juicyasians",
    "AsianNSFW",
    "nextdoorasians",
    "asianporn",
    "bustyasians",
    "paag",
    "IndianBabes",
    "indiansgonewild",
    "NSFW_Japan",
    "javdownloadcenter",
    "kpopfap",
    "NSFW_Korea",
    "WomenOfColor",
    "darkangels",
    "blackchickswhitedicks",
    "ebony",
    "Afrodisiac",
    "ginger",
    "redheads",
    "latinas",
    "latinasgw",
    "latinacuties",
    "palegirls",
    "pawg",
    "snowwhites",
    "NSFW_GIF",
    "nsfw_gifs",
    "porn_gifs",
    "porninfifteenseconds",
    "CuteModeSlutMode",
    "60fpsporn",
    "NSFW_HTML5",
    "the_best_nsfw_gifs",
    "twingirls",
    "groupofnudegirls",
    "Ifyouhadtopickone",
    "nsfwhardcore",
    "SheLikesItRough",
    "strugglefucking",
    "jigglefuck",
    "freeuse",
    "whenitgoesin",
    "outercourse",
    "gangbang",
    "breeding",
    "pegging",
    "insertions",
    "passionx",
    "hugedicktinychick",
    "amateurgirlsbigcocks",
    "facesitting",
    "nsfw_plowcam",
    "pronebone",
    "facefuck",
    "60fpsporn",
    "highresNSFW",
    "NSFW_HTML5",
    "incestporn",
    "wincest",
    "sarah_xxx",
    "remylacroix",
    "Anjelica_Ebbi",
    "BlancNoir",
    "rileyreid",
    "dollywinks",
    "tessafowler",
    "lilyivy",
    "funsizedasian",
    "mycherrycrush",
    "gillianbarnes",
    "kawaiikitten",
    "emilybloom",
    "legendarylootz",
    "sexyflowerwater",
    "miamalkova",
    "sashagrey",
    "keriberry_420",
    "justpeachyy",
    "angelawhite",
    "miakhalifa",
    "alexapearl",
    "missalice_18",
    "lanarhoades",
    "evalovia",
    "GiannaMichaels",
    "lesbians",
    "StraightGirlsPlaying",
    "girlskissing",
    "mmgirls",
    "dykesgonewild",
    "holdthemoan",
    "O_faces",
    "jilling",
    "gettingherselfoff",
    "quiver",
    "GirlsHumpingThings",
    "forcedorgasms",
    "mmgirls",
    "ruinedorgasms",
    "suctiondildos",
    "baddragon",
    "grool",
    "squirting",
    "ladybonersgw",
    "massivecock",
    "chickflixxx",
    "gaybrosgonewild",
    "sissies",
    "OnOff",
    "nsfwoutfits",
    "girlswithglasses",
    "collared",
    "seethru",
    "sweatermeat",
    "cfnm",
    "nsfwfashion",
    "leotards",
    "bikinis",
    "bikinibridge",
    "nsfwcosplay",
    "nsfwcostumes",
    "girlsinschooluniforms",
    "WtSSTaDaMiT",
    "tightdresses",
    "upskirt",
    "stockings",
    "thighhighs",
    "leggingsgonewild",
    "Bottomless_Vixens",
    "tightshorts",
    "girlsinyogapants",
    "yogapants",
    "lingerie",
    "assinthong",
    "AssholeBehindThong",
    "ChangingRooms",
    "workgonewild",
    "trashyboners",
    "FlashingGirls",
    "publicflashing",
    "sexinfrontofothers",
    "NotSafeForNature",
    "gwpublic",
    "realpublicnudity",
    "socialmediasluts",
    "flashingandflaunting",
    "Tgirls",
    "traps",
    "futanari",
    "gonewildtrans",
    "tgifs",
    "pornvids",
    "nsfw_videos",
    "dirtysnapchat",
    "randomactsofblowjob",
    "NSFWFunny",
    "pornhubcomments",
    "confusedboners",
    "dirtykikpals",
    "nsfw_wtf",
    "randomactsofmuffdive",
    "stupidslutsclub",
    "sluttyconfessions",
    "popping"
  ],
  "hentai_subreddits": [
    "hentai",
    "HENTAI_GIF",
    "ecchi",
    "ahegao",
    "thighdeology",
    "MonsterGirl",
    "pantsu",
    "hentaibondage",
    "Tentai",
    "yuri",
    "traphentai",
    "consentacles",
    "hentaivids",
    "StealthVibes",
    "Nekomimi",
    "BokuNoEroAcademia",
    "Sukebei",
    "Naruto_Hentai",
    "HentaiBeast",
    "animeplot",
    "hentaifemdom",
    "thick_hentai",
    "AnimeMILFS",
    "Paizuri",
    "hentiny",
    "RWBYNSFW",
    "FreeuseHentai",
    "AnimeBooty",
    "adorablehentai",
    "chiisaihentai",
    "muchihentai",
    "SlimeGirls",
    "funpiece",
    "HypnoHentai",
    "nsfwanimegifs",
    "Fire_Emblem_R34",
    "StuckHentai",
    "BigAnimeTiddies",
    "CumHentai",
    "dekaihentai",
    "OppaiLove",
    "HentaiSource",
    "HQHentai",
    "Fairytail_hentai",
    "Futa_Hentai",
    "GameOverGirls",
    "HentaiAnime",
    "waifusgonewild",
    "DDLCRule34",
    "transformation",
    "thighhighhentai",
    "FutanariHentai",
    "cumflation",
    "animelegs",
    "animemidriff",
    "AnimeFeet",
    "uncensoredhentai",
    "Bleach_Hentai",
    "KillLaHentai",
    "Vore",
    "HookedUpHentai",
    "HelplessHentai",
    "PublicHentai",
    "oppai_gif",
    "swimsuithentai",
    "HardcoreHentaiBondage",
    "CuteTraps",
    "ecchigifs",
    "NSFWAnimeWallpaper",
    "hentaicaptions",
    "corruptionhentai",
    "Incest_Hentai_Manga",
    "hentai411",
    "KuroiHada",
    "KanMusuNights",
    "VirginKillerSweater",
    "Touhou_NSFW",
    "Ovipositor",
    "MH34u",
    "Pollewd",
    "HeartShapedHentai",
    "HentaiPetgirls",
    "HentaiVisualArts",
    "ShingekiNoHentai",
    "animearmpits",
    "MonsterGirls",
    "HentaiBreeding",
    "grailwhores",
    "HentaiHumiliation",
    "preggohentai",
    "Lamia",
    "SpiderGirls",
    "smallfutanari",
    "ReZeroHentai",
    "hentaichastity",
    "LewdLive",
    "ElfHentai",
    "saohentai",
    "fitgirlshentai"
  ]
}